(module diode_v (layer F.Cu) (tedit 5FB8FAC6)
  (descr "Diode, DO-35_SOD27 series, Axial, Horizontal, pin pitch=7.62mm, , length*diameter=4*2mm^2, , http://www.diodes.com/_files/packages/DO-35.pdf")
  (tags "Diode DO-35_SOD27 series Axial Horizontal pin pitch 7.62mm  length 4mm diameter 2mm")
  (fp_text reference D6 (at 10.16 0) (layer F.SilkS)
    (effects (font (size 1 1) (thickness 0.15)))
  )
  (fp_text value D (at 3.81 2.12 180) (layer F.Fab)
    (effects (font (size 1 1) (thickness 0.15)))
  )
  (fp_text user %R (at 4.11 0 180) (layer F.Fab)
    (effects (font (size 0.8 0.8) (thickness 0.12)))
  )
  (fp_line (start 8.67 -1.25) (end -1.05 -1.25) (layer F.CrtYd) (width 0.05))
  (fp_line (start 8.67 1.25) (end 8.67 -1.25) (layer F.CrtYd) (width 0.05))
  (fp_line (start -1.05 1.25) (end 8.67 1.25) (layer F.CrtYd) (width 0.05))
  (fp_line (start -1.05 -1.25) (end -1.05 1.25) (layer F.CrtYd) (width 0.05))
  (fp_line (start 2.29 -1.12) (end 2.29 1.12) (layer F.SilkS) (width 0.12))
  (fp_line (start 2.53 -1.12) (end 2.53 1.12) (layer F.SilkS) (width 0.12))
  (fp_line (start 2.41 -1.12) (end 2.41 1.12) (layer F.SilkS) (width 0.12))
  (fp_line (start 6.58 0) (end 5.93 0) (layer F.SilkS) (width 0.12))
  (fp_line (start 1.04 0) (end 1.69 0) (layer F.SilkS) (width 0.12))
  (fp_line (start 5.93 -1.12) (end 1.69 -1.12) (layer F.SilkS) (width 0.12))
  (fp_line (start 5.93 1.12) (end 5.93 -1.12) (layer F.SilkS) (width 0.12))
  (fp_line (start 1.69 1.12) (end 5.93 1.12) (layer F.SilkS) (width 0.12))
  (fp_line (start 1.69 -1.12) (end 1.69 1.12) (layer F.SilkS) (width 0.12))
  (fp_line (start 2.31 -1) (end 2.31 1) (layer F.Fab) (width 0.1))
  (fp_line (start 2.51 -1) (end 2.51 1) (layer F.Fab) (width 0.1))
  (fp_line (start 2.41 -1) (end 2.41 1) (layer F.Fab) (width 0.1))
  (fp_line (start 7.62 0) (end 5.81 0) (layer F.Fab) (width 0.1))
  (fp_line (start 0 0) (end 1.81 0) (layer F.Fab) (width 0.1))
  (fp_line (start 5.81 -1) (end 1.81 -1) (layer F.Fab) (width 0.1))
  (fp_line (start 5.81 1) (end 5.81 -1) (layer F.Fab) (width 0.1))
  (fp_line (start 1.81 1) (end 5.81 1) (layer F.Fab) (width 0.1))
  (fp_line (start 1.81 -1) (end 1.81 1) (layer F.Fab) (width 0.1))
  (pad 1 thru_hole rect (at 0 0) (size 1.6 1.6) (drill 0.8) (layers *.Cu *.Mask))
  (pad 2 thru_hole oval (at 7.62 0) (size 1.6 1.6) (drill 0.8) (layers *.Cu *.Mask))
  (model ${KISYS3DMOD}/Diode_THT.3dshapes/D_DO-35_SOD27_P7.62mm_Horizontal.wrl
    (at (xyz 0 0 0))
    (scale (xyz 1 1 1))
    (rotate (xyz 0 0 0))
  )
)
