(module LegoHolev17_4.8mm (layer F.Cu) (tedit 600DB5FA)
  (descr "Mounting Hole 4.5mm, no annular")
  (tags "mounting hole 4.5mm no annular")
  (attr virtual)
  (fp_text reference H19 (at 0 -3.2) (layer F.SilkS)
    (effects (font (size 1 1) (thickness 0.15)))
  )
  (fp_text value MountingHole_Pad (at 0 5) (layer F.Fab)
    (effects (font (size 1 1) (thickness 0.15)))
  )
  (fp_text user %R (at 0.3 0) (layer F.Fab)
    (effects (font (size 1 1) (thickness 0.15)))
  )
  (fp_line (start -3.9 -3.9) (end 3.9 -3.9) (layer F.CrtYd) (width 0.12))
  (fp_line (start 3.9 3.9) (end 3.9 -3.9) (layer F.CrtYd) (width 0.12))
  (fp_line (start 3.9 3.9) (end -3.9 3.9) (layer F.CrtYd) (width 0.12))
  (fp_line (start -3.9 -3.9) (end -3.9 3.9) (layer F.CrtYd) (width 0.12))
  (pad "" np_thru_hole circle (at 0 0) (size 4.8 4.8) (drill 4.8) (layers *.Cu *.Mask))
  (pad "" np_thru_hole circle (at 0 8) (size 4.8 4.8) (drill 4.8) (layers *.Cu *.Mask))
  (pad "" np_thru_hole circle (at 0 16) (size 4.8 4.8) (drill 4.8) (layers *.Cu *.Mask))
  (pad "" np_thru_hole circle (at 0 24) (size 4.8 4.8) (drill 4.8) (layers *.Cu *.Mask))
  (pad "" np_thru_hole circle (at 0 32) (size 4.8 4.8) (drill 4.8) (layers *.Cu *.Mask))
  (pad "" np_thru_hole circle (at 0 40) (size 4.8 4.8) (drill 4.8) (layers *.Cu *.Mask))
  (pad "" np_thru_hole circle (at 0 48) (size 4.8 4.8) (drill 4.8) (layers *.Cu *.Mask))
  (pad "" np_thru_hole circle (at 0 56) (size 4.8 4.8) (drill 4.8) (layers *.Cu *.Mask))
  (pad "" np_thru_hole circle (at 0 64) (size 4.8 4.8) (drill 4.8) (layers *.Cu *.Mask))
  (pad "" np_thru_hole circle (at 0 72) (size 4.8 4.8) (drill 4.8) (layers *.Cu *.Mask))
  (pad "" np_thru_hole circle (at 0 80) (size 4.8 4.8) (drill 4.8) (layers *.Cu *.Mask))
  (pad "" np_thru_hole circle (at 0 88) (size 4.8 4.8) (drill 4.8) (layers *.Cu *.Mask))
  (pad "" np_thru_hole circle (at 0 96) (size 4.8 4.8) (drill 4.8) (layers *.Cu *.Mask))
  (pad "" np_thru_hole circle (at 0 104) (size 4.8 4.8) (drill 4.8) (layers *.Cu *.Mask))
  (pad "" np_thru_hole circle (at 0 112) (size 4.8 4.8) (drill 4.8) (layers *.Cu *.Mask))
  (pad "" np_thru_hole circle (at 0 120) (size 4.8 4.8) (drill 4.8) (layers *.Cu *.Mask))
  (pad "" np_thru_hole circle (at 0 128) (size 4.8 4.8) (drill 4.8) (layers *.Cu *.Mask))
)
